INFO:    Using cached SIF image
Started analysis of JNQM_OmniC_NA_NA_CTTGTCGA_Apple_Cosmic_Crisp-Apple_WA38_Cosmic_OmniC_I1161L1_L1_R1.fastq
Started analysis of JNQM_OmniC_NA_NA_CTTGTCGA_Apple_Cosmic_Crisp-Apple_WA38_Cosmic_OmniC_I1161L1_L1_R2.fastq
Approx 5% complete for JNQM_OmniC_NA_NA_CTTGTCGA_Apple_Cosmic_Crisp-Apple_WA38_Cosmic_OmniC_I1161L1_L1_R1.fastq
Approx 5% complete for JNQM_OmniC_NA_NA_CTTGTCGA_Apple_Cosmic_Crisp-Apple_WA38_Cosmic_OmniC_I1161L1_L1_R2.fastq
Approx 10% complete for JNQM_OmniC_NA_NA_CTTGTCGA_Apple_Cosmic_Crisp-Apple_WA38_Cosmic_OmniC_I1161L1_L1_R1.fastq
Approx 10% complete for JNQM_OmniC_NA_NA_CTTGTCGA_Apple_Cosmic_Crisp-Apple_WA38_Cosmic_OmniC_I1161L1_L1_R2.fastq
Approx 15% complete for JNQM_OmniC_NA_NA_CTTGTCGA_Apple_Cosmic_Crisp-Apple_WA38_Cosmic_OmniC_I1161L1_L1_R1.fastq
Approx 15% complete for JNQM_OmniC_NA_NA_CTTGTCGA_Apple_Cosmic_Crisp-Apple_WA38_Cosmic_OmniC_I1161L1_L1_R2.fastq
Approx 20% complete for JNQM_OmniC_NA_NA_CTTGTCGA_Apple_Cosmic_Crisp-Apple_WA38_Cosmic_OmniC_I1161L1_L1_R1.fastq
Approx 20% complete for JNQM_OmniC_NA_NA_CTTGTCGA_Apple_Cosmic_Crisp-Apple_WA38_Cosmic_OmniC_I1161L1_L1_R2.fastq
Approx 25% complete for JNQM_OmniC_NA_NA_CTTGTCGA_Apple_Cosmic_Crisp-Apple_WA38_Cosmic_OmniC_I1161L1_L1_R1.fastq
Approx 25% complete for JNQM_OmniC_NA_NA_CTTGTCGA_Apple_Cosmic_Crisp-Apple_WA38_Cosmic_OmniC_I1161L1_L1_R2.fastq
Approx 30% complete for JNQM_OmniC_NA_NA_CTTGTCGA_Apple_Cosmic_Crisp-Apple_WA38_Cosmic_OmniC_I1161L1_L1_R1.fastq
Approx 30% complete for JNQM_OmniC_NA_NA_CTTGTCGA_Apple_Cosmic_Crisp-Apple_WA38_Cosmic_OmniC_I1161L1_L1_R2.fastq
Approx 35% complete for JNQM_OmniC_NA_NA_CTTGTCGA_Apple_Cosmic_Crisp-Apple_WA38_Cosmic_OmniC_I1161L1_L1_R1.fastq
Approx 35% complete for JNQM_OmniC_NA_NA_CTTGTCGA_Apple_Cosmic_Crisp-Apple_WA38_Cosmic_OmniC_I1161L1_L1_R2.fastq
Approx 40% complete for JNQM_OmniC_NA_NA_CTTGTCGA_Apple_Cosmic_Crisp-Apple_WA38_Cosmic_OmniC_I1161L1_L1_R1.fastq
Approx 40% complete for JNQM_OmniC_NA_NA_CTTGTCGA_Apple_Cosmic_Crisp-Apple_WA38_Cosmic_OmniC_I1161L1_L1_R2.fastq
Approx 45% complete for JNQM_OmniC_NA_NA_CTTGTCGA_Apple_Cosmic_Crisp-Apple_WA38_Cosmic_OmniC_I1161L1_L1_R1.fastq
Approx 45% complete for JNQM_OmniC_NA_NA_CTTGTCGA_Apple_Cosmic_Crisp-Apple_WA38_Cosmic_OmniC_I1161L1_L1_R2.fastq
Approx 50% complete for JNQM_OmniC_NA_NA_CTTGTCGA_Apple_Cosmic_Crisp-Apple_WA38_Cosmic_OmniC_I1161L1_L1_R1.fastq
Approx 50% complete for JNQM_OmniC_NA_NA_CTTGTCGA_Apple_Cosmic_Crisp-Apple_WA38_Cosmic_OmniC_I1161L1_L1_R2.fastq
Approx 55% complete for JNQM_OmniC_NA_NA_CTTGTCGA_Apple_Cosmic_Crisp-Apple_WA38_Cosmic_OmniC_I1161L1_L1_R1.fastq
Approx 55% complete for JNQM_OmniC_NA_NA_CTTGTCGA_Apple_Cosmic_Crisp-Apple_WA38_Cosmic_OmniC_I1161L1_L1_R2.fastq
Approx 60% complete for JNQM_OmniC_NA_NA_CTTGTCGA_Apple_Cosmic_Crisp-Apple_WA38_Cosmic_OmniC_I1161L1_L1_R1.fastq
Approx 60% complete for JNQM_OmniC_NA_NA_CTTGTCGA_Apple_Cosmic_Crisp-Apple_WA38_Cosmic_OmniC_I1161L1_L1_R2.fastq
Approx 65% complete for JNQM_OmniC_NA_NA_CTTGTCGA_Apple_Cosmic_Crisp-Apple_WA38_Cosmic_OmniC_I1161L1_L1_R1.fastq
Approx 65% complete for JNQM_OmniC_NA_NA_CTTGTCGA_Apple_Cosmic_Crisp-Apple_WA38_Cosmic_OmniC_I1161L1_L1_R2.fastq
Approx 70% complete for JNQM_OmniC_NA_NA_CTTGTCGA_Apple_Cosmic_Crisp-Apple_WA38_Cosmic_OmniC_I1161L1_L1_R1.fastq
Approx 70% complete for JNQM_OmniC_NA_NA_CTTGTCGA_Apple_Cosmic_Crisp-Apple_WA38_Cosmic_OmniC_I1161L1_L1_R2.fastq
Approx 75% complete for JNQM_OmniC_NA_NA_CTTGTCGA_Apple_Cosmic_Crisp-Apple_WA38_Cosmic_OmniC_I1161L1_L1_R1.fastq
Approx 75% complete for JNQM_OmniC_NA_NA_CTTGTCGA_Apple_Cosmic_Crisp-Apple_WA38_Cosmic_OmniC_I1161L1_L1_R2.fastq
Approx 80% complete for JNQM_OmniC_NA_NA_CTTGTCGA_Apple_Cosmic_Crisp-Apple_WA38_Cosmic_OmniC_I1161L1_L1_R1.fastq
Approx 80% complete for JNQM_OmniC_NA_NA_CTTGTCGA_Apple_Cosmic_Crisp-Apple_WA38_Cosmic_OmniC_I1161L1_L1_R2.fastq
Approx 85% complete for JNQM_OmniC_NA_NA_CTTGTCGA_Apple_Cosmic_Crisp-Apple_WA38_Cosmic_OmniC_I1161L1_L1_R1.fastq
Approx 85% complete for JNQM_OmniC_NA_NA_CTTGTCGA_Apple_Cosmic_Crisp-Apple_WA38_Cosmic_OmniC_I1161L1_L1_R2.fastq
Approx 90% complete for JNQM_OmniC_NA_NA_CTTGTCGA_Apple_Cosmic_Crisp-Apple_WA38_Cosmic_OmniC_I1161L1_L1_R1.fastq
Approx 90% complete for JNQM_OmniC_NA_NA_CTTGTCGA_Apple_Cosmic_Crisp-Apple_WA38_Cosmic_OmniC_I1161L1_L1_R2.fastq
Approx 95% complete for JNQM_OmniC_NA_NA_CTTGTCGA_Apple_Cosmic_Crisp-Apple_WA38_Cosmic_OmniC_I1161L1_L1_R1.fastq
Approx 95% complete for JNQM_OmniC_NA_NA_CTTGTCGA_Apple_Cosmic_Crisp-Apple_WA38_Cosmic_OmniC_I1161L1_L1_R2.fastq
